<?xml version="1.0" encoding="UTF-8"?>
<svg width="28px" height="20px" viewBox="0 0 28 20" version="1.1" xmlns="http://www.w3.org/2000/svg" xmlns:xlink="http://www.w3.org/1999/xlink">
    <g id="Home" stroke="none" stroke-width="1" fill-rule="evenodd">
        <g id="Artboard" transform="translate(-109.000000, -1250.000000)" fill-rule="nonzero">
            <g id="News" transform="translate(30.000000, 798.000000)">
                <g id="Group" transform="translate(11.000000, 452.000000)">
                    <path d="M95.6186399,8.86352928 L87.286314,0.387842146 C86.7779379,-0.129280715 85.9534543,-0.129280715 85.4450783,0.387842146 C84.9365981,0.905070953 84.9365981,1.7435283 85.4450783,2.26075711 L91.5548604,8.47566064 L69.3019259,8.47566064 C68.5829504,8.47566064 68,9.0686409 68,9.79998676 C68,10.5312267 68.5829504,11.1243129 69.3019259,11.1243129 L91.5548604,11.1243129 L85.4452866,17.3392164 C84.9368064,17.8564452 84.9368064,18.6949026 85.4452866,19.2121314 C85.6994225,19.4705339 86.0327155,19.6 86.3659044,19.6 C86.6990933,19.6 87.0322822,19.4705339 87.2865223,19.2121314 L95.6186399,10.7364442 C96.12712,10.2192154 96.12712,9.38075808 95.6186399,8.86352928 Z" id="Mask"></path>
                </g>
            </g>
        </g>
    </g>
</svg>